<svg version="1.1" xmlns="http://www.w3.org/2000/svg" xmlns:xlink="http://www.w3.org/1999/xlink" x="0px" y="0px" width="700px" height="240px" viewBox="0 0 700 240">
<text xml:space="preserve" y="48" x="43.347656" fill="#6e8296"><tspan font-size="18px" y="48" x="43.347656" style="font-family: 'Helvetica Neue', 'Roboto', 'Segoe UI', sans-serif;" fill="#6e8296">Perfektionismus</tspan></text>
<path d="m25 48v-13l11.258 6.5z" fill-rule="evenodd" fill="#e7324c"/>
<text xml:space="preserve" y="72" x="43.347656" fill="#6e8296"><tspan font-size="18px" y="77" x="43.347656" style="font-family: 'Helvetica Neue', 'Roboto', 'Segoe UI', sans-serif;" fill="#6e8296">Zeitdruck</tspan></text>
<path d="m25 77v-13l11.258 6.5z" fill-rule="evenodd" fill="#e7324c"/>
<text xml:space="preserve" y="96" x="43.347656" fill="#6e8296"><tspan font-size="18px" y="106" x="43.347656" style="font-family: 'Helvetica Neue', 'Roboto', 'Segoe UI', sans-serif;" fill="#6e8296">Störungen</tspan></text>
<path d="m25 106v-13l11.258 6.5z" fill-rule="evenodd" fill="#e7324c"/>
<text xml:space="preserve" y="120" x="43.347656" fill="#6e8296"><tspan font-size="18px" y="135" x="43.347656" style="font-family: 'Helvetica Neue', 'Roboto', 'Segoe UI', sans-serif;" fill="#6e8296">Schulden</tspan></text>
<path d="m25 135v-13l11.258 6.5z" fill-rule="evenodd" fill="#e7324c"/>
<text xml:space="preserve" y="144" x="43.347656" fill="#6e8296"><tspan font-size="18px" y="164" x="43.347656" style="font-family: 'Helvetica Neue', 'Roboto', 'Segoe UI', sans-serif;" fill="#6e8296">Erkältung usw.</tspan></text>
<path d="m25 164v-13l11.258 6.5z" fill-rule="evenodd" fill="#e7324c"/>
<text xml:space="preserve" y="47.999672" x="557.34766" fill="#6e8296"><tspan font-size="18px" y="48" x="557.34766" style="font-family: 'Helvetica Neue', 'Roboto', 'Segoe UI', sans-serif;" fill="#6e8296">nettes Kollegium</tspan></text>
<path d="m539 48v-13l11.258 6.5z" fill-rule="evenodd" fill="#3ca046"/>
<text xml:space="preserve" y="71.999672" x="557.34766" fill="#6e8296"><tspan font-size="18px" y="77" x="557.34766" style="font-family: 'Helvetica Neue', 'Roboto', 'Segoe UI', sans-serif;" fill="#6e8296">Anerkennung</tspan></text>
<path d="m539 77v-13l11.258 6.5z" fill-rule="evenodd" fill="#3ca046"/>
<text xml:space="preserve" y="95.999672" x="557.34766" fill="#6e8296"><tspan font-size="18px" y="106" x="557.34766" style="font-family: 'Helvetica Neue', 'Roboto', 'Segoe UI', sans-serif;" fill="#6e8296">gutes Klima</tspan></text>
<path d="m539 106v-13l11.258 6.5z" fill-rule="evenodd" fill="#3ca046"/>
<text xml:space="preserve" y="119.99967" x="557.34766" fill="#6e8296"><tspan font-size="18px" y="135" x="557.34766" style="font-family: 'Helvetica Neue', 'Roboto', 'Segoe UI', sans-serif;" fill="#6e8296">Hobbys</tspan></text>
<path d="m539 135v-13l11.258 6.5z" fill-rule="evenodd" fill="#3ca046"/>
<text xml:space="preserve" y="143.99966" x="557.34766" fill="#6e8296"><tspan font-size="18px" y="164" x="557.34766" style="font-family: 'Helvetica Neue', 'Roboto', 'Segoe UI', sans-serif;" fill="#6e8296">Erfolge</tspan></text>
<path d="m539 164v-13l11.258 6.5z" fill-rule="evenodd" fill="#3ca046"/>
<text xml:space="preserve" y="168" x="557.34766" fill="#6e8296"><tspan font-size="18px" y="193" x="557.34766" style="font-family: 'Helvetica Neue', 'Roboto', 'Segoe UI', sans-serif;" fill="#6e8296">Pausen usw.</tspan></text>
<path d="m539 193v-13l11.258 6.5z" fill-rule="evenodd" fill="#3ca046"/>
<g transform="translate(-.5)">
<g transform="translate(9 -51.898)">
<polygon points="-0.58 74 89.42 74 44.411 150" fill="#e7324c" transform="translate(213.58 123.9)"/>
<g transform="translate(213.58 123.9)" stroke-miterlimit="10" stroke-width="3" fill="none">
<path stroke-linejoin="round" d="m4.42 69 40-64" stroke="#f0f2f4"/>
<path d="m84.42 69-40-64" stroke="#e2e6ea"/>
</g>
<rect height="17" width="88" y="160.9" x="213.58" fill="#fff"/>
<text style="font-family: 'Helvetica Neue', 'Roboto', 'Segoe UI', sans-serif;" font-size="14px" y="173.89749" x="258.57999" text-anchor="middle" font-weight="bold" fill="#e7324c">
Stressoren
</text>
</g>
<g transform="translate(-32 -86.898)">
<polygon points="90 74 45 150 0 74" fill="#3ca046" transform="translate(421 97.898)"/>
<g transform="translate(421 97.898)" stroke-miterlimit="10" stroke-width="3" fill="none">
<path d="m84.42 69-40-64" stroke="#f0f2f4"/>
<path stroke-linejoin="round" d="m4.42 69 40-64" stroke="#e2e6ea"/>
</g>
<rect height="17" width="88" y="134.9" x="421" fill="#fff"/>
<text style="font-family: 'Helvetica Neue', 'Roboto', 'Segoe UI', sans-serif;" font-size="14px" y="147.89749" x="466" text-anchor="middle" font-weight="bold" fill="#3ca046">
Ressourcen
</text>
</g>
<line stroke-width="3" x1="266.86" y1="76.769" stroke="#e2e6ea" stroke-linecap="round" x2="433.18" y2="16.231" fill="none"/>
<g transform="translate(305.58,-18.763)">
<polygon points="69.111 51.751 19.728 51.751 44.415 92.904" fill="#e2e6ea"/>
<path fill="#fff" d="m69.111 51.751-24.696 41.153-24.687-41.153h49.383m5.309-2.988h-5.309-49.383-5.308l2.706 4.51 24.688 41.154 2.602 4.336 2.603-4.336 24.696-41.154 2.705-4.51z"/>
</g>
</g>
</svg>
