<svg version="1.1" xmlns="http://www.w3.org/2000/svg" xmlns:xlink="http://www.w3.org/1999/xlink" x="0px" y="0px" width="260px"
	 height="140px" viewBox="0 0 260 140" xml:space="preserve">
<g>
	<g>
		<path fill="#B3B3B3" d="M26.424,93.035c0.292-0.5,0.66-1.113,1.01-1.744c0.611-1.109,1.605-2.861,1.185-4.15
			c-0.241-0.742-1.075-1.051-1.942-0.768c-0.707,0.23-1.303,0.729-1.658,1.109l-0.435-0.945c0.569-0.5,1.217-0.914,1.936-1.148
			c1.438-0.469,2.845-0.068,3.332,1.426c0.432,1.324-0.533,3.205-1.125,4.371c-0.3,0.59-0.714,1.256-0.987,1.736l3.824-1.248
			l0.305,0.938l-5.045,1.645L26.424,93.035z"/>
		<path fill="#B3B3B3" d="M33.125,83.234c2.203-0.719,3.479,1.49,4.049,3.236c0.57,1.748,0.843,4.285-1.36,5.004
			s-3.479-1.492-4.049-3.238C31.194,86.49,30.923,83.953,33.125,83.234z M35.508,90.539c1.37-0.447,0.78-2.68,0.457-3.674
			c-0.328-1.004-1.222-3.123-2.534-2.695s-0.784,2.668-0.456,3.672C33.298,88.833,34.139,90.984,35.508,90.539z"/>
		<path fill="#B3B3B3" d="M219.406,29.112c-0.346-1.061,0.154-2.008,1.005-2.65l-0.008-0.023c-1.298-0.031-1.897-0.744-2.143-1.498
			c-0.332-1.016,0.337-2.219,1.957-2.748c1.575-0.514,2.764,0.109,3.05,0.988c0.291,0.891,0.119,1.604-0.768,2.523
			c1.066,0.018,2.021,0.502,2.366,1.564c0.521,1.598-0.521,2.695-2.017,3.184C221.502,30.891,219.887,30.584,219.406,29.112z
			 M221.57,25.641c0.701-1.025,0.715-1.371,0.536-1.918c-0.246-0.754-1.104-0.752-1.675-0.564c-0.524,0.17-1.224,0.814-0.978,1.568
			C219.633,25.276,220.326,25.465,221.57,25.641z M221.394,26.608c-0.502,0.668-1.104,1.105-0.8,2.041
			c0.287,0.879,1.254,1.094,2.053,0.834c0.765-0.25,1.277-0.924,1.04-1.729C223.355,26.624,222.383,26.739,221.394,26.608z"/>
		<path fill="#B3B3B3" d="M226.513,20.139c2.203-0.719,3.479,1.49,4.05,3.236c0.569,1.748,0.842,4.285-1.361,5.004
			s-3.479-1.492-4.049-3.238C224.582,23.395,224.311,20.858,226.513,20.139z M228.896,27.444c1.37-0.447,0.78-2.68,0.457-3.674
			c-0.328-1.004-1.222-3.123-2.534-2.695s-0.784,2.668-0.457,3.672C226.686,25.739,227.526,27.889,228.896,27.444z"/>
	</g>
	<path fill="#3CA046" d="M20,98.134c0,0,3.412-1.18,9.385-3.244c2.986-1.033,6.611-2.287,10.771-3.727
		c2.079-0.719,4.292-1.484,6.625-2.291c2.346-0.766,4.812-1.57,7.387-2.412c20.594-6.719,48.052-15.678,75.51-24.635
		c27.459-8.959,54.917-17.918,75.511-24.637c2.576-0.833,5.032-1.67,7.39-2.401c2.359-0.725,4.598-1.412,6.701-2.059
		c4.207-1.293,7.875-2.42,10.895-3.348c6.041-1.855,9.492-2.916,9.492-2.916s-3.413,1.18-9.386,3.244
		c-2.986,1.031-6.612,2.283-10.771,3.721c-2.08,0.719-4.293,1.484-6.626,2.289c-2.335,0.801-4.812,1.573-7.385,2.42
		c-20.594,6.719-48.052,15.678-75.51,24.635c-27.459,8.959-54.917,17.918-75.511,24.637c-2.574,0.838-5.041,1.643-7.388,2.408
		c-2.359,0.725-4.598,1.41-6.701,2.057c-4.208,1.291-7.875,2.418-10.896,3.344C23.452,97.076,20,98.134,20,98.134z"/>
	<polygon fill="#3CA046" points="68.227,99.152 79.773,79.15 91.32,99.152 102.867,119.15 79.773,119.15 56.68,119.15 	"/>
</g>
</svg>
