<?xml version="1.0" encoding="utf-8"?>
<!-- Generator: Adobe Illustrator 16.0.0, SVG Export Plug-In . SVG Version: 6.00 Build 0)  -->
<!DOCTYPE svg PUBLIC "-//W3C//DTD SVG 1.1//EN" "http://www.w3.org/Graphics/SVG/1.1/DTD/svg11.dtd">
<svg version="1.1" xmlns="http://www.w3.org/2000/svg" xmlns:xlink="http://www.w3.org/1999/xlink" x="0px" y="0px" width="560px"
	 height="225px" viewBox="0 0 560 225" enable-background="new 0 0 560 225" xml:space="preserve">
<g id="Ebene_2">
	<line fill="none" stroke="#E7324C" stroke-width="6" stroke-miterlimit="10" x1="271.389" y1="84.449" x2="334.178" y2="36.557"/>
	<g>
		<path fill="#FFFFFF" d="M343.094,56.785c-25.188,0-45.682-12.233-45.682-27.27c0-15.034,20.493-27.265,45.682-27.265
			s45.682,12.231,45.682,27.265C388.775,44.552,368.282,56.785,343.094,56.785z"/>
		<g>
			<path fill="#B3B3B3" d="M343.094,3.25c24.638,0,44.682,11.782,44.682,26.265c0,14.485-20.044,26.27-44.682,26.27
				S298.412,44,298.412,29.515C298.412,15.033,318.456,3.25,343.094,3.25 M343.094,1.25c-25.781,0-46.682,12.654-46.682,28.265
				c0,15.612,20.9,28.27,46.682,28.27s46.682-12.657,46.682-28.27C389.775,13.905,368.875,1.25,343.094,1.25L343.094,1.25z"/>
		</g>
	</g>
	<g>
		<line fill="none" stroke="#3CA046" stroke-width="2" stroke-miterlimit="10" x1="194.928" y1="102.04" x2="94.85" y2="99.525"/>
	</g>
	<g>
		
			<line fill="none" stroke="#3CA046" stroke-width="2" stroke-miterlimit="10" x1="495.312" y1="187.561" x2="283.494" y2="117.096"/>
	</g>
	<g>
		<g>
			
				<line fill="none" stroke="#3CA046" stroke-width="2" stroke-miterlimit="10" x1="462.209" y1="99.201" x2="459.211" y2="99.308"/>
			
				<line fill="none" stroke="#3CA046" stroke-width="2" stroke-miterlimit="10" stroke-dasharray="5.8166,5.8166" x1="453.398" y1="99.516" x2="293.545" y2="105.24"/>
			
				<line fill="none" stroke="#3CA046" stroke-width="2" stroke-miterlimit="10" x1="290.639" y1="105.344" x2="287.641" y2="105.452"/>
		</g>
	</g>
	
		<line fill="none" stroke="#3CA046" stroke-width="6" stroke-miterlimit="10" x1="206.893" y1="124.871" x2="150.096" y2="176.686"/>
	<g>
		<path fill="#FFFFFF" d="M48.523,126.792c-25.188,0-45.682-12.232-45.682-27.267c0-15.035,20.493-27.268,45.682-27.268
			S94.205,84.49,94.205,99.525C94.205,114.56,73.712,126.792,48.523,126.792z"/>
		<g>
			<path fill="#B3B3B3" d="M48.523,73.257c24.638,0,44.682,11.784,44.682,26.268c0,6.823-4.514,13.314-12.709,18.276
				c-8.509,5.152-19.863,7.99-31.973,7.99s-23.464-2.838-31.973-7.99c-8.195-4.962-12.709-11.453-12.709-18.276
				C3.842,85.041,23.886,73.257,48.523,73.257 M48.523,71.257c-25.781,0-46.682,12.654-46.682,28.268
				c0,15.61,20.9,28.267,46.682,28.267s46.682-12.656,46.682-28.267C95.205,83.912,74.305,71.257,48.523,71.257L48.523,71.257z"/>
		</g>
	</g>
	<g>
		<path d="M28.07,95.161h5.01v1.188h-3.658v2.755h3.496v1.188h-3.496v4.294H28.07V95.161z"/>
		<path d="M34.779,97.7h1.189v1.066h0.027c0.336-0.716,1.066-1.229,1.795-1.229c0.379,0,0.568,0.04,0.838,0.095v1.134
			c-0.23-0.094-0.486-0.121-0.703-0.121c-1.133,0-1.877,1.08-1.877,2.809v3.133h-1.27V97.7z"/>
		<path d="M40.355,98.186c0.635-0.378,1.391-0.648,2.268-0.648c1.973,0,2.77,0.973,2.77,2.85v2.849c0,0.783,0.027,1.148,0.053,1.351
			h-1.188v-0.891H44.23c-0.297,0.418-0.973,1.053-2.133,1.053c-1.486,0-2.525-0.648-2.525-2.146c0-1.729,1.891-2.27,3.199-2.27
			c0.5,0,0.852,0,1.352,0.027c0-1.188-0.432-1.796-1.701-1.796c-0.717,0-1.486,0.27-2,0.702L40.355,98.186z M44.123,101.305
			c-0.27,0-0.541-0.027-0.811-0.027c-0.689,0-2.391,0.108-2.391,1.324c0,0.729,0.703,1.12,1.283,1.12
			c1.256,0,1.918-0.783,1.918-1.81V101.305z"/>
		<path d="M53.629,104.586h-1.23v-1.094h-0.025c-0.379,0.783-1.297,1.256-2.256,1.256c-1.783,0-2.58-1.107-2.58-2.957V97.7h1.27
			v3.565c0,1.606,0.352,2.39,1.459,2.457c1.445,0,2.094-1.161,2.094-2.836V97.7h1.27V104.586z"/>
		<path d="M58.891,103.372l4.889-7.022h-4.727v-1.188h6.279v1.216l-4.875,7.021h4.955v1.188h-6.521V103.372z"/>
	</g>
	<g>
		<path fill="#FFFFFF" d="M123.588,222.75c-25.19,0-45.684-12.231-45.684-27.266c0-15.036,20.493-27.269,45.684-27.269
			c25.188,0,45.682,12.232,45.682,27.269C169.27,210.519,148.776,222.75,123.588,222.75z"/>
		<path fill="#B3B3B3" d="M123.588,169.216c24.638,0,44.682,11.784,44.682,26.269c0,14.483-20.044,26.266-44.682,26.266
			c-12.109,0-23.465-2.837-31.975-7.99c-8.195-4.962-12.709-11.453-12.709-18.276C78.904,181,98.949,169.216,123.588,169.216
			 M123.588,167.216c-25.781,0-46.684,12.655-46.684,28.269c0,15.61,20.902,28.266,46.684,28.266s46.682-12.655,46.682-28.266
			C170.27,179.872,149.369,167.216,123.588,167.216L123.588,167.216z"/>
	</g>
	<g>
		<path d="M92.639,191.121h5.01v1.188H93.99v2.755h3.496v1.188H93.99v4.294h-1.352V191.121z"/>
		<path d="M99.348,193.66h1.189v1.066h0.027c0.336-0.716,1.066-1.229,1.795-1.229c0.379,0,0.568,0.04,0.838,0.095v1.134
			c-0.23-0.094-0.486-0.121-0.703-0.121c-1.133,0-1.877,1.08-1.877,2.809v3.133h-1.27V193.66z"/>
		<path d="M109.879,200.263c-0.486,0.176-1.039,0.445-2.174,0.445c-2.443,0-3.564-1.485-3.564-3.727
			c0-2.039,1.283-3.484,3.227-3.484c2.297,0,3.039,1.675,3.039,3.889h-4.916c0,1.364,1.066,2.296,2.27,2.296
			c0.836,0,1.809-0.432,2.119-0.688V200.263z M109.057,196.442c0-1.054-0.623-1.918-1.717-1.918c-1.242,0-1.754,1.026-1.85,1.918
			H109.057z"/>
		<path d="M118.197,200.546h-1.23v-1.094h-0.025c-0.379,0.783-1.297,1.256-2.256,1.256c-1.783,0-2.58-1.107-2.58-2.957v-4.092h1.27
			v3.565c0,1.606,0.352,2.39,1.459,2.457c1.445,0,2.094-1.161,2.094-2.836v-3.187h1.27V200.546z"/>
		<path d="M120.354,193.66h1.23v1.094h0.025c0.379-0.783,1.297-1.256,2.256-1.256c1.783,0,2.58,1.107,2.58,2.957v4.092h-1.27v-3.564
			c0-1.607-0.352-2.391-1.459-2.458c-1.445,0-2.094,1.161-2.094,2.836v3.187h-1.27V193.66z"/>
		<path d="M133.477,199.575h-0.025c-0.338,0.513-1.121,1.134-2.352,1.134c-2.078,0-2.957-1.85-2.957-3.727
			c0-1.851,0.973-3.484,2.971-3.484c1.203,0,1.891,0.473,2.283,1.107h0.027v-4.187h1.27v10.128h-1.217V199.575z M131.398,199.682
			c1.43,0,2.025-1.418,2.025-2.565c0-1.283-0.662-2.593-2.039-2.593c-1.379,0-1.918,1.296-1.891,2.552
			C129.467,198.157,130.033,199.682,131.398,199.682z"/>
		<path d="M138.674,190.958h1.189l-3.242,9.75h-1.188L138.674,190.958z"/>
		<path d="M142.117,192.121h-1.432v-1.432h1.432V192.121z M140.766,193.66h1.27v6.887h-1.27V193.66z"/>
		<path d="M144.357,193.66h1.229v1.094h0.027c0.377-0.783,1.297-1.256,2.256-1.256c1.781,0,2.578,1.107,2.578,2.957v4.092h-1.27
			v-3.564c0-1.607-0.352-2.391-1.459-2.458c-1.443,0-2.092,1.161-2.092,2.836v3.187h-1.27V193.66z"/>
	</g>
	<g>
		<path d="M309.664,25.153h1.35v4.146l4.023-4.146h1.797l-4.43,4.456l4.781,4.97h-1.973l-4.199-4.618v4.618h-1.35V25.153z"/>
		<path d="M321.531,27.529c2.094,0,3.498,1.513,3.498,3.606c0,1.971-1.432,3.605-3.498,3.605c-2.08,0-3.512-1.635-3.512-3.605
			C318.02,29.042,319.424,27.529,321.531,27.529z M321.531,33.714c1.484,0,2.146-1.351,2.146-2.579c0-1.311-0.797-2.58-2.146-2.58
			c-1.363,0-2.16,1.27-2.16,2.58C319.371,32.364,320.031,33.714,321.531,33.714z"/>
		<path d="M326.889,24.451h1.27v10.128h-1.27V24.451z"/>
		<path d="M330.643,24.451h1.27v10.128h-1.27V24.451z"/>
		<path d="M339.514,34.294c-0.486,0.176-1.041,0.446-2.174,0.446c-2.445,0-3.566-1.485-3.566-3.728c0-2.039,1.283-3.484,3.229-3.484
			c2.295,0,3.037,1.675,3.037,3.89h-4.914c0,1.364,1.066,2.296,2.268,2.296c0.838,0,1.811-0.433,2.121-0.688V34.294z
			 M338.689,30.473c0-1.054-0.621-1.918-1.715-1.918c-1.242,0-1.756,1.026-1.85,1.918H338.689z"/>
		<path d="M347.83,34.282c0,2.093-1.082,3.295-3.553,3.295c-0.729,0-1.363-0.095-2.471-0.473l0.135-1.175
			c0.973,0.445,1.553,0.621,2.484,0.621c1.338,0,2.135-0.905,2.135-2.363v-0.676h-0.027c-0.541,0.716-1.432,1.067-2.309,1.067
			c-1.973,0-2.945-1.607-2.945-3.39c0-1.77,1-3.66,3.08-3.66c1.215,0,1.891,0.446,2.268,1.188h0.027v-1.026h1.176V34.282z
			 M346.561,31.216c0-1.432-0.662-2.661-2.014-2.661c-1.281,0-1.916,1.392-1.916,2.566c0,1.296,0.729,2.431,1.916,2.431
			C345.736,33.552,346.561,32.499,346.561,31.216z"/>
		<path d="M351.5,26.152h-1.432V24.72h1.432V26.152z M350.148,27.691h1.27v6.888h-1.27V27.691z"/>
		<path d="M353.74,27.691h1.23v1.094h0.025c0.379-0.783,1.297-1.256,2.256-1.256c1.783,0,2.58,1.107,2.58,2.958v4.092h-1.27v-3.565
			c0-1.606-0.352-2.39-1.459-2.458c-1.445,0-2.094,1.162-2.094,2.836v3.188h-1.27V27.691z"/>
		<path d="M368.24,29.676l-3.16-4.523h1.621l2.512,3.619l2.498-3.619h1.539l-3.174,4.496l3.484,4.93h-1.701l-2.781-3.997
			l-2.688,3.997h-1.621L368.24,29.676z"/>
	</g>
	<g>
		<path fill="#FFFFFF" d="M508.201,123.659c-25.191,0-45.686-12.232-45.686-27.269c0-15.034,20.494-27.265,45.686-27.265
			c25.188,0,45.682,12.231,45.682,27.265C553.883,111.426,533.39,123.659,508.201,123.659z"/>
		<g>
			<path fill="#B3B3B3" d="M508.201,70.125c24.638,0,44.682,11.782,44.682,26.265c0,6.823-4.514,13.314-12.709,18.277
				c-8.51,5.154-19.864,7.992-31.973,7.992c-12.109,0-23.465-2.838-31.975-7.992c-8.197-4.963-12.711-11.454-12.711-18.277
				s4.514-13.313,12.711-18.275C484.736,72.963,496.092,70.125,508.201,70.125 M508.201,68.125
				c-25.781,0-46.686,12.654-46.686,28.265c0,15.609,20.904,28.269,46.686,28.269S554.883,112,554.883,96.39
				C554.883,80.78,533.982,68.125,508.201,68.125L508.201,68.125z"/>
		</g>
	</g>
	<g>
		<path d="M474.77,92.026h1.35v4.146l4.023-4.146h1.797l-4.43,4.457l4.781,4.969h-1.973l-4.199-4.618v4.618h-1.35V92.026z"/>
		<path d="M486.637,94.403c2.094,0,3.498,1.513,3.498,3.605c0,1.972-1.432,3.605-3.498,3.605c-2.08,0-3.512-1.634-3.512-3.605
			C483.125,95.916,484.529,94.403,486.637,94.403z M486.637,100.587c1.484,0,2.146-1.351,2.146-2.579
			c0-1.31-0.797-2.579-2.146-2.579c-1.363,0-2.16,1.27-2.16,2.579C484.477,99.237,485.137,100.587,486.637,100.587z"/>
		<path d="M491.994,91.324h1.27v10.128h-1.27V91.324z"/>
		<path d="M495.748,91.324h1.27v10.128h-1.27V91.324z"/>
		<path d="M504.619,101.168c-0.486,0.176-1.041,0.445-2.174,0.445c-2.445,0-3.566-1.485-3.566-3.727
			c0-2.039,1.283-3.484,3.229-3.484c2.295,0,3.037,1.675,3.037,3.889h-4.914c0,1.364,1.066,2.296,2.268,2.296
			c0.838,0,1.811-0.432,2.121-0.688V101.168z M503.795,97.347c0-1.054-0.621-1.918-1.715-1.918c-1.242,0-1.756,1.026-1.85,1.918
			H503.795z"/>
		<path d="M512.936,101.155c0,2.093-1.082,3.295-3.553,3.295c-0.729,0-1.363-0.095-2.471-0.473l0.135-1.175
			c0.973,0.445,1.553,0.621,2.484,0.621c1.338,0,2.135-0.904,2.135-2.363v-0.675h-0.027c-0.541,0.716-1.432,1.066-2.309,1.066
			c-1.973,0-2.945-1.606-2.945-3.39c0-1.769,1-3.659,3.08-3.659c1.215,0,1.891,0.445,2.268,1.188h0.027v-1.026h1.176V101.155z
			 M511.666,98.089c0-1.432-0.662-2.66-2.014-2.66c-1.281,0-1.916,1.391-1.916,2.565c0,1.297,0.729,2.431,1.916,2.431
			C510.842,100.425,511.666,99.373,511.666,98.089z"/>
		<path d="M516.605,93.026h-1.432v-1.432h1.432V93.026z M515.254,94.565h1.27v6.887h-1.27V94.565z"/>
		<path d="M518.846,94.565h1.23v1.094h0.025c0.379-0.783,1.297-1.256,2.256-1.256c1.783,0,2.58,1.107,2.58,2.957v4.092h-1.27v-3.564
			c0-1.607-0.352-2.391-1.459-2.458c-1.445,0-2.094,1.161-2.094,2.836v3.187h-1.27V94.565z"/>
		<path d="M533.602,97.508l-3.686-5.482h1.58l2.809,4.227l2.74-4.227h1.58l-3.672,5.482v3.943h-1.352V97.508z"/>
	</g>
	<g>
		<path fill="#FFFFFF" d="M511.477,206.974c-25.19,0-45.684-12.232-45.684-27.267s20.493-27.267,45.684-27.267
			c25.188,0,45.682,12.232,45.682,27.267S536.665,206.974,511.477,206.974z"/>
		<g>
			<path fill="#B3B3B3" d="M511.477,153.441c24.638,0,44.682,11.783,44.682,26.267s-20.044,26.267-44.682,26.267
				c-24.639,0-44.684-11.783-44.684-26.267S486.838,153.441,511.477,153.441 M511.477,151.441
				c-25.781,0-46.684,12.654-46.684,28.267c0,15.611,20.902,28.267,46.684,28.267s46.682-12.655,46.682-28.267
				C558.158,164.095,537.258,151.441,511.477,151.441L511.477,151.441z"/>
		</g>
	</g>
	<g>
		<path d="M472.047,175.344h1.35v3.943h4.51v-3.943h1.352v9.426h-1.352v-4.295h-4.51v4.295h-1.35V175.344z"/>
		<path d="M481.928,178.369c0.635-0.378,1.391-0.648,2.27-0.648c1.971,0,2.768,0.973,2.768,2.85v2.85
			c0,0.783,0.027,1.147,0.055,1.351h-1.189v-0.892h-0.025c-0.297,0.419-0.973,1.054-2.135,1.054c-1.484,0-2.525-0.648-2.525-2.147
			c0-1.729,1.891-2.269,3.201-2.269c0.5,0,0.852,0,1.35,0.027c0-1.188-0.432-1.797-1.701-1.797c-0.715,0-1.484,0.271-1.998,0.702
			L481.928,178.369z M485.695,181.489c-0.27,0-0.539-0.027-0.811-0.027c-0.688,0-2.389,0.107-2.389,1.323
			c0,0.729,0.701,1.121,1.283,1.121c1.256,0,1.916-0.783,1.916-1.81V181.489z"/>
		<path d="M495.201,184.77h-1.23v-1.094h-0.025c-0.379,0.783-1.297,1.256-2.256,1.256c-1.783,0-2.58-1.107-2.58-2.958v-4.092h1.27
			v3.565c0,1.607,0.352,2.391,1.459,2.458c1.445,0,2.094-1.161,2.094-2.836v-3.188h1.27V184.77z"/>
		<path d="M496.846,183.419c0.498,0.324,1.215,0.486,1.58,0.486c0.58,0,1.295-0.243,1.295-0.986c0-1.256-2.984-1.147-2.984-3.079
			c0-1.431,1.068-2.12,2.432-2.12c0.594,0,1.08,0.122,1.58,0.271l-0.109,1.107c-0.283-0.176-1.039-0.352-1.336-0.352
			c-0.648,0-1.215,0.271-1.215,0.838c0,1.404,2.984,0.999,2.984,3.2c0,1.472-1.176,2.147-2.404,2.147
			c-0.648,0-1.311-0.067-1.891-0.378L496.846,183.419z"/>
		<path d="M502.596,177.882h1.189v1h0.027c0.486-0.797,1.174-1.162,2.188-1.162c0.797,0,1.594,0.405,1.957,1.337
			c0.473-0.985,1.514-1.337,2.135-1.337c1.756,0,2.391,1.135,2.391,2.634v4.416h-1.27v-4.105c0-0.851-0.203-1.918-1.23-1.918
			c-1.295,0-1.809,1.27-1.809,2.553v3.471h-1.27v-4.105c0-0.851-0.203-1.918-1.229-1.918c-1.297,0-1.811,1.27-1.811,2.553v3.471
			h-1.27V177.882z"/>
		<path d="M519.891,184.486c-0.486,0.176-1.039,0.446-2.174,0.446c-2.443,0-3.564-1.485-3.564-3.728
			c0-2.039,1.283-3.484,3.227-3.484c2.297,0,3.039,1.675,3.039,3.89h-4.916c0,1.364,1.066,2.296,2.27,2.296
			c0.836,0,1.809-0.433,2.119-0.688V184.486z M519.068,180.665c0-1.054-0.623-1.918-1.717-1.918c-1.242,0-1.754,1.026-1.85,1.918
			H519.068z"/>
		<path d="M523.629,176.343h-1.432v-1.432h1.432V176.343z M522.279,177.882h1.27v6.888h-1.27V177.882z"/>
		<path d="M525.357,183.419c0.498,0.324,1.215,0.486,1.58,0.486c0.58,0,1.295-0.243,1.295-0.986c0-1.256-2.984-1.147-2.984-3.079
			c0-1.431,1.068-2.12,2.432-2.12c0.594,0,1.08,0.122,1.58,0.271l-0.109,1.107c-0.283-0.176-1.039-0.352-1.336-0.352
			c-0.648,0-1.215,0.271-1.215,0.838c0,1.404,2.984,0.999,2.984,3.2c0,1.472-1.176,2.147-2.404,2.147
			c-0.648,0-1.311-0.067-1.891-0.378L525.357,183.419z"/>
		<path d="M534.781,178.909h-1.822v3.768c0,0.797,0.486,1.229,1.066,1.229c0.391,0,0.676-0.122,0.863-0.243v1.08
			c-0.283,0.081-0.674,0.189-1.08,0.189c-1.309,0-2.119-0.621-2.119-1.999v-4.024h-1.553v-1.026h1.553v-1.593l1.27-0.405v1.998
			h1.822V178.909z"/>
		<path d="M541.652,184.486c-0.486,0.176-1.039,0.446-2.174,0.446c-2.443,0-3.564-1.485-3.564-3.728
			c0-2.039,1.283-3.484,3.227-3.484c2.297,0,3.039,1.675,3.039,3.89h-4.916c0,1.364,1.066,2.296,2.27,2.296
			c0.836,0,1.809-0.433,2.119-0.688V184.486z M540.83,180.665c0-1.054-0.623-1.918-1.717-1.918c-1.242,0-1.754,1.026-1.85,1.918
			H540.83z"/>
		<path d="M543.879,177.882h1.188v1.067h0.027c0.338-0.716,1.066-1.229,1.797-1.229c0.377,0,0.566,0.041,0.836,0.095v1.135
			c-0.229-0.095-0.486-0.122-0.701-0.122c-1.135,0-1.877,1.081-1.877,2.81v3.133h-1.27V177.882z"/>
	</g>
	<g>
		
			<ellipse fill="#FFFFFF" stroke="#B3B3B3" stroke-width="2" stroke-miterlimit="10" cx="240.961" cy="105.452" rx="46.68" ry="28.267"/>
		<g>
			<path d="M226.627,99.529h2.002v13.963h-2.002V99.529z"/>
			<path d="M241.83,101.83c-0.881-0.521-1.861-0.78-2.881-0.78c-3.221,0-5.361,2.32-5.361,5.461c0,3.281,2.359,5.461,5.26,5.461
				c1.002,0,2.342-0.26,3.041-0.68l0.121,1.94c-1.061,0.44-2.361,0.5-3.182,0.5c-4.42,0-7.361-2.841-7.361-7.281
				c0-4.301,3.121-7.162,7.381-7.162c1.082,0,2.141,0.16,3.141,0.601L241.83,101.83z"/>
			<path d="M244.508,99.529h2v5.842h6.682v-5.842h2v13.963h-2v-6.361h-6.682v6.361h-2V99.529z"/>
		</g>
	</g>
</g>
<g id="Ebene_1">
</g>
<g id="Ebene_3">
</g>
<g id="Ebene_4">
</g>
<g id="Ebene_5">
</g>
</svg>
