<?xml version="1.0" encoding="UTF-8" standalone="no"?>
<!-- Generator: Adobe Illustrator 16.0.4, SVG Export Plug-In . SVG Version: 6.00 Build 0)  -->

<svg
   xmlns:dc="http://purl.org/dc/elements/1.1/"
   xmlns:cc="http://creativecommons.org/ns#"
   xmlns:rdf="http://www.w3.org/1999/02/22-rdf-syntax-ns#"
   xmlns:svg="http://www.w3.org/2000/svg"
   xmlns="http://www.w3.org/2000/svg"
   xmlns:sodipodi="http://sodipodi.sourceforge.net/DTD/sodipodi-0.dtd"
   xmlns:inkscape="http://www.inkscape.org/namespaces/inkscape"
   version="1.1"
   x="0px"
   y="0px"
   width="739.999px"
   height="290px"
   viewBox="0 0 739.999 290"
   enable-background="new 0 0 739.999 290"
   xml:space="preserve"
   id="svg4136"
   inkscape:version="0.91 r13725"
   sodipodi:docname="balance.svg"><metadata
     id="metadata5567"><rdf:RDF><cc:Work
         rdf:about=""><dc:format>image/svg+xml</dc:format><dc:type
           rdf:resource="http://purl.org/dc/dcmitype/StillImage" /><dc:title></dc:title></cc:Work></rdf:RDF></metadata><defs
     id="defs5565" /><sodipodi:namedview
     pagecolor="#ffffff"
     bordercolor="#666666"
     borderopacity="1"
     objecttolerance="10"
     gridtolerance="10"
     guidetolerance="10"
     inkscape:pageopacity="0"
     inkscape:pageshadow="2"
     inkscape:window-width="1920"
     inkscape:window-height="1138"
     id="namedview5563"
     showgrid="false"
     inkscape:zoom="1.9851378"
     inkscape:cx="380.98194"
     inkscape:cy="238.82246"
     inkscape:window-x="-8"
     inkscape:window-y="-8"
     inkscape:window-maximized="1"
     inkscape:current-layer="svg4136" /><g
     id="g9297"><g
       id="Ebene_2" /><g
       id="Ebene_1" /><g
       id="Ebene_3" /><path
       style="fill:#f2f2f2;stroke:#3ca046;stroke-miterlimit:10"
       inkscape:connector-curvature="0"
       id="path4148"
       d="m 422.823,161.808 -9.213,-9.214 c 9.889,-6.506 15.934,-15.187 15.934,-24.726 0,-9.538 -6.045,-18.22 -15.934,-24.726 l 9.213,-9.213 1.996,4.942 3.178,-13.651 -13.652,3.178 4.943,1.996 -10.117,10.116 c -10.641,-5.701 -24.623,-9.169 -39.949,-9.169 -16.502,0 -31.453,4.018 -42.344,10.52 l -11.469,-11.467 4.943,-1.996 -13.65,-3.178 3.176,13.651 1.996,-4.942 10.746,10.746 c -8.572,6.308 -13.721,14.386 -13.721,23.192 0,8.806 5.148,16.885 13.721,23.192 l -10.746,10.747 -1.996,-4.943 -3.176,13.651 13.65,-3.178 -4.943,-1.995 11.469,-11.468 c 10.891,6.503 25.842,10.52 42.344,10.52 15.326,0 29.309,-3.468 39.949,-9.169 l 10.117,10.117 -4.943,1.995 13.652,3.178 -3.178,-13.651 -1.996,4.945 z"
       stroke-miterlimit="10" /><text
       xml:space="preserve"
       style="font-style:normal;font-weight:normal;font-size:40px;line-height:125%;font-family:sans-serif;text-align:center;letter-spacing:0px;word-spacing:0px;text-anchor:middle;fill:#000000;fill-opacity:1;stroke:none;stroke-width:1px;stroke-linecap:butt;stroke-linejoin:miter;stroke-opacity:1"
       x="368.16724"
       y="121.23099"
       id="text7696"
       sodipodi:linespacing="125%"><tspan
         sodipodi:role="line"
         id="tspan7698"
         x="371.68286"
         y="121.23099"
         style="font-style:normal;font-variant:normal;font-weight:normal;font-stretch:normal;font-size:20px;font-family:sans-serif;-inkscape-font-specification:sans-serif;text-align:center;text-anchor:middle;fill:#3ca046;fill-opacity:1">Live in </tspan><tspan
         sodipodi:role="line"
         x="368.16724"
         y="146.23099"
         id="tspan7700"
         style="font-style:normal;font-variant:normal;font-weight:normal;font-stretch:normal;font-size:20px;font-family:sans-serif;-inkscape-font-specification:sans-serif;text-align:center;text-anchor:middle;fill:#3ca046;fill-opacity:1">Balance</tspan></text>
<text
       xml:space="preserve"
       style="font-style:normal;font-weight:normal;font-size:40px;line-height:125%;font-family:sans-serif;letter-spacing:0px;word-spacing:0px;fill:#000000;fill-opacity:1;stroke:none;stroke-width:1px;stroke-linecap:butt;stroke-linejoin:miter;stroke-opacity:1"
       x="19.810699"
       y="27.963602"
       id="text7718"
       sodipodi:linespacing="125%"><tspan
         sodipodi:role="line"
         id="tspan7720"
         x="19.810699"
         y="27.963602"
         style="font-style:normal;font-variant:normal;font-weight:bold;font-stretch:normal;font-size:12.5px;font-family:sans-serif;-inkscape-font-specification:'sans-serif Bold';fill:#3ca046;fill-opacity:1">Body/Health:</tspan></text>
<text
       xml:space="preserve"
       style="font-style:normal;font-weight:normal;font-size:40px;line-height:125%;font-family:sans-serif;letter-spacing:0px;word-spacing:0px;fill:#000000;fill-opacity:1;stroke:none;stroke-width:1px;stroke-linecap:butt;stroke-linejoin:miter;stroke-opacity:1"
       x="19.810331"
       y="153.9543"
       id="text7718-5"
       sodipodi:linespacing="125%"><tspan
         sodipodi:role="line"
         id="tspan7720-3"
         x="19.810331"
         y="153.9543"
         style="font-style:normal;font-variant:normal;font-weight:bold;font-stretch:normal;font-size:12.5px;font-family:sans-serif;-inkscape-font-specification:'sans-serif Bold';fill:#3ca046;fill-opacity:1">Family/Contact:</tspan></text>
<g
       id="Ebene_5" /><text
       sodipodi:linespacing="125%"
       id="text9029"
       y="48.218151"
       x="20.969999"
       style="font-style:normal;font-weight:normal;font-size:40px;line-height:125%;font-family:sans-serif;letter-spacing:0px;word-spacing:0px;fill:#000000;fill-opacity:1;stroke:none;stroke-width:1px;stroke-linecap:butt;stroke-linejoin:miter;stroke-opacity:1"
       xml:space="preserve"><tspan
         style="font-size:12.5px"
         y="48.218151"
         x="20.969999"
         id="tspan9031"
         sodipodi:role="line">This includes nutrition, recovery, </tspan><tspan
         id="tspan9033"
         style="font-size:12.5px"
         y="63.843151"
         x="20.969999"
         sodipodi:role="line">relaxation, sports, in short:</tspan><tspan
         id="tspan9039"
         style="font-size:12.5px"
         y="79.468147"
         x="20.969999"
         sodipodi:role="line">physical fitness. Do you take a </tspan><tspan
         id="tspan9041"
         style="font-size:12.5px"
         y="95.093147"
         x="20.969999"
         sodipodi:role="line">good care of your body?</tspan></text>
<text
       sodipodi:linespacing="125%"
       id="text9029-4"
       y="175.65543"
       x="20.969999"
       style="font-style:normal;font-weight:normal;font-size:40px;line-height:125%;font-family:sans-serif;letter-spacing:0px;word-spacing:0px;fill:#000000;fill-opacity:1;stroke:none;stroke-width:1px;stroke-linecap:butt;stroke-linejoin:miter;stroke-opacity:1"
       xml:space="preserve"><tspan
         id="tspan9081"
         style="font-size:12.5px"
         y="175.65543"
         x="20.969999"
         sodipodi:role="line">This includes in addition all sources of care, </tspan><tspan
         id="tspan9168"
         style="font-size:12.5px"
         y="191.28043"
         x="20.969999"
         sodipodi:role="line">affection and appreciation:family, friends, </tspan><tspan
         id="tspan9085"
         style="font-size:12.5px"
         y="206.90543"
         x="20.969999"
         sodipodi:role="line">acquaintances, neighbors, club members - </tspan><tspan
         id="tspan9087"
         style="font-size:12.5px"
         y="222.53043"
         x="20.969999"
         sodipodi:role="line">all those who give you a social network. </tspan><tspan
         id="tspan9176"
         style="font-size:12.5px"
         y="238.15543"
         x="20.969999"
         sodipodi:role="line">Do you feel well integrated socially?</tspan><tspan
         id="tspan9079"
         style="font-size:12.5px"
         y="253.78043"
         x="20.969999"
         sodipodi:role="line" /></text>
<text
       sodipodi:linespacing="125%"
       id="text9029-4-7"
       y="174.836"
       x="688.74097"
       style="font-style:normal;font-weight:normal;font-size:40px;line-height:125%;font-family:sans-serif;text-align:end;letter-spacing:0px;word-spacing:0px;text-anchor:end;fill:#000000;fill-opacity:1;stroke:none;stroke-width:1px;stroke-linecap:butt;stroke-linejoin:miter;stroke-opacity:1"
       xml:space="preserve"><tspan
         id="tspan9188"
         style="font-size:12.5px;text-align:end;text-anchor:end"
         y="174.836"
         x="693.1355"
         sodipodi:role="line">Surely it will be clear for you what this </tspan><tspan
         id="tspan9194"
         style="font-size:12.5px;text-align:end;text-anchor:end"
         y="190.461"
         x="688.74097"
         sodipodi:role="line">area includes: satisfaction at work, success,</tspan><tspan
         id="tspan9138"
         style="font-size:12.5px;text-align:end;text-anchor:end"
         y="206.086"
         x="688.74097"
         sodipodi:role="line">also financially, reputation, career, prosperity.</tspan><tspan
         id="tspan9140"
         style="font-size:12.5px;text-align:end;text-anchor:end"
         y="221.711"
         x="693.1355"
         sodipodi:role="line">How satisfied are you with your job </tspan><tspan
         id="tspan9178"
         style="font-size:12.5px;text-align:end;text-anchor:end"
         y="237.336"
         x="688.74097"
         sodipodi:role="line">and your performance?</tspan><tspan
         id="tspan9079-2"
         style="font-size:12.5px;text-align:end;text-anchor:end"
         y="252.961"
         x="688.74097"
         sodipodi:role="line" /></text>
<text
       sodipodi:linespacing="125%"
       id="text9170"
       y="239.12192"
       x="119.38718"
       style="font-style:normal;font-weight:normal;font-size:40px;line-height:125%;font-family:sans-serif;letter-spacing:0px;word-spacing:0px;fill:#000000;fill-opacity:1;stroke:none;stroke-width:1px;stroke-linecap:butt;stroke-linejoin:miter;stroke-opacity:1"
       xml:space="preserve"><tspan
         y="239.12192"
         x="119.38718"
         id="tspan9172"
         sodipodi:role="line"></tspan></text>
<text
       xml:space="preserve"
       style="font-style:normal;font-weight:normal;font-size:40px;line-height:125%;font-family:sans-serif;letter-spacing:0px;word-spacing:0px;fill:#000000;fill-opacity:1;stroke:none;stroke-width:1px;stroke-linecap:butt;stroke-linejoin:miter;stroke-opacity:1"
       x="445.24734"
       y="154.36819"
       id="text7718-5-1"
       sodipodi:linespacing="125%"><tspan
         sodipodi:role="line"
         id="tspan7720-3-1"
         x="445.24734"
         y="154.36819"
         style="font-style:normal;font-variant:normal;font-weight:bold;font-stretch:normal;font-size:12.5px;font-family:sans-serif;-inkscape-font-specification:'sans-serif Bold';fill:#3ca046;fill-opacity:1">Family/Contact:</tspan></text>
<text
       xml:space="preserve"
       style="font-style:normal;font-weight:normal;font-size:40px;line-height:125%;font-family:sans-serif;letter-spacing:0px;word-spacing:0px;fill:#000000;fill-opacity:1;stroke:none;stroke-width:1px;stroke-linecap:butt;stroke-linejoin:miter;stroke-opacity:1"
       x="445.74173"
       y="28.008835"
       id="text7718-5-5"
       sodipodi:linespacing="125%"><tspan
         sodipodi:role="line"
         id="tspan7720-3-2"
         x="445.74173"
         y="28.008835"
         style="font-style:normal;font-variant:normal;font-weight:bold;font-stretch:normal;font-size:12.5px;font-family:sans-serif;-inkscape-font-specification:'sans-serif Bold';fill:#3ca046;fill-opacity:1">Sense/Culture:</tspan></text>
<text
       sodipodi:linespacing="125%"
       id="text9029-4-7-1"
       y="48.750351"
       x="688.61987"
       style="font-style:normal;font-weight:normal;font-size:40px;line-height:125%;font-family:sans-serif;text-align:end;letter-spacing:0px;word-spacing:0px;text-anchor:end;fill:#000000;fill-opacity:1;stroke:none;stroke-width:1px;stroke-linecap:butt;stroke-linejoin:miter;stroke-opacity:1"
       xml:space="preserve"><tspan
         id="tspan9275"
         style="font-size:12.5px;text-align:end;text-anchor:end"
         y="48.750351"
         x="693.0144"
         sodipodi:role="line">This includes all questions about self-realization. </tspan><tspan
         id="tspan9271"
         style="font-size:12.5px;text-align:end;text-anchor:end"
         y="64.375351"
         x="693.0144"
         sodipodi:role="line">What makes your life meaningful? Religion, </tspan><tspan
         id="tspan9273"
         style="font-size:12.5px;text-align:end;text-anchor:end"
         y="80.000351"
         x="688.61987"
         sodipodi:role="line">spirituality, questions about the future,</tspan><tspan
         id="tspan9285"
         style="font-size:12.5px;text-align:end;text-anchor:end"
         y="95.625351"
         x="688.61987"
         sodipodi:role="line">as well as love can belong to this.</tspan><tspan
         id="tspan9079-2-7"
         style="font-size:12.5px;text-align:end;text-anchor:end"
         y="111.25035"
         x="688.61987"
         sodipodi:role="line" /></text>
</g></svg>